<?xml version="1.0" encoding="UTF-8"?>
<svg xmlns="http://www.w3.org/2000/svg" xmlns:xlink="http://www.w3.org/1999/xlink" width="24pt" height="24pt" viewBox="0 0 24 24" version="1.1">
<g id="surface1">
<path style=" stroke:none;fill-rule:nonzero;fill:rgb(20%,20%,20%);fill-opacity:1;" d="M 2.800781 12 L 6.300781 12 L 6.300781 20 L 2.800781 20 Z M 2.800781 12 "/>
<path style=" stroke:none;fill-rule:nonzero;fill:rgb(20%,20%,20%);fill-opacity:1;" d="M 17.398438 4 L 21.199219 4 L 21.199219 20 L 17.398438 20 Z M 17.398438 4 "/>
<path style=" stroke:none;fill-rule:nonzero;fill:rgb(20%,20%,20%);fill-opacity:1;" d="M 8.398438 9 L 10.398438 9 L 10.398438 10 L 8.398438 10 Z M 8.398438 9 "/>
<path style=" stroke:none;fill-rule:nonzero;fill:rgb(20%,20%,20%);fill-opacity:1;" d="M 8.398438 11 L 10.398438 11 L 10.398438 12 L 8.398438 12 Z M 8.398438 11 "/>
<path style=" stroke:none;fill-rule:nonzero;fill:rgb(20%,20%,20%);fill-opacity:1;" d="M 13.199219 4 L 14.898438 4 L 14.898438 4.898438 L 13.199219 4.898438 Z M 13.199219 4 "/>
<path style=" stroke:none;fill-rule:nonzero;fill:rgb(20%,20%,20%);fill-opacity:1;" d="M 13.199219 8 L 14.898438 8 L 14.898438 9 L 13.199219 9 Z M 13.199219 8 "/>
<path style=" stroke:none;fill-rule:nonzero;fill:rgb(20%,20%,20%);fill-opacity:1;" d="M 13.199219 5.898438 L 14.898438 5.898438 L 14.898438 7 L 13.199219 7 Z M 13.199219 5.898438 "/>
</g>
</svg>
