<?xml version="1.0" encoding="UTF-8"?>
<svg xmlns="http://www.w3.org/2000/svg" xmlns:xlink="http://www.w3.org/1999/xlink" width="24pt" height="24pt" viewBox="0 0 24 24" version="1.1">
<g id="surface1">
<path style=" stroke:none;fill-rule:nonzero;fill:rgb(20%,20%,20%);fill-opacity:1;" d="M 7.5 9 L 11.5 9 L 11.5 12 L 7.5 12 Z M 7.5 9 "/>
<path style=" stroke:none;fill-rule:nonzero;fill:rgb(20%,20%,20%);fill-opacity:1;" d="M 12.5 4 L 16.5 4 L 16.5 9 L 12.5 9 Z M 12.5 4 "/>
<path style=" stroke:none;fill-rule:nonzero;fill:rgb(20%,20%,20%);fill-opacity:1;" d="M 4.5 15.101562 L 6.5 15.101562 L 6.5 16.699219 L 4.5 16.699219 Z M 4.5 15.101562 "/>
<path style=" stroke:none;fill-rule:nonzero;fill:rgb(20%,20%,20%);fill-opacity:1;" d="M 4.5 18.398438 L 6.5 18.398438 L 6.5 20 L 4.5 20 Z M 4.5 18.398438 "/>
<path style=" stroke:none;fill-rule:nonzero;fill:rgb(20%,20%,20%);fill-opacity:1;" d="M 4.5 12 L 6.5 12 L 6.5 13.5 L 4.5 13.5 Z M 4.5 12 "/>
<path style=" stroke:none;fill-rule:nonzero;fill:rgb(20%,20%,20%);fill-opacity:1;" d="M 19.5 14.398438 L 17.5 14.398438 L 17.5 16 L 19.5 16 Z M 19.5 14.398438 "/>
<path style=" stroke:none;fill-rule:nonzero;fill:rgb(20%,20%,20%);fill-opacity:1;" d="M 19.5 6.398438 L 19.5 4 L 17.5 4 L 17.5 6.300781 L 19.5 6.300781 Z M 19.5 6.398438 "/>
<path style=" stroke:none;fill-rule:nonzero;fill:rgb(20%,20%,20%);fill-opacity:1;" d="M 17.5 11.199219 L 17.5 12.800781 L 19.5 12.800781 L 19.5 11.199219 Z M 17.5 11.199219 "/>
<path style=" stroke:none;fill-rule:nonzero;fill:rgb(20%,20%,20%);fill-opacity:1;" d="M 17.5 8 L 17.5 9.601562 L 19.5 9.601562 L 19.5 8 Z M 17.5 8 "/>
<path style=" stroke:none;fill-rule:nonzero;fill:rgb(20%,20%,20%);fill-opacity:1;" d="M 19.5 17.601562 L 17.5 17.601562 L 17.5 20 L 19.5 20 Z M 19.5 17.601562 "/>
</g>
</svg>
