{
    "type": "application",
    "source-directories": [
        "src"
    ],
    "elm-version": "0.19.1",
    "dependencies": {
        "direct": {
            "avh4/elm-color": "1.0.0",
            "elm/browser": "1.0.2",
            "elm/core": "1.0.5",
            "elm/html": "1.0.0",
            "elm/json": "1.1.3",
            "elm/regex": "1.0.0",
            "elm/time": "1.0.0",
            "elm-community/html-extra": "3.4.0",
            "elm-community/list-extra": "8.2.4",
            "elm-community/typed-svg": "6.0.0",
            "folkertdev/one-true-path-experiment": "4.0.3",
            "gampleman/elm-visualization": "2.1.1",
            "noahzgordon/elm-color-extra": "1.0.2",
            "rtfeldman/elm-css": "16.0.2",
            "rtfeldman/elm-hex": "1.0.0",
            "tortus/elm-array-2d": "3.0.0"
        },
        "indirect": {
            "Skinney/murmur3": "2.0.8",
            "elm/parser": "1.1.0",
            "elm/svg": "1.0.1",
            "elm/url": "1.0.0",
            "elm/virtual-dom": "1.0.2",
            "folkertdev/elm-deque": "3.0.1",
            "folkertdev/svg-path-lowlevel": "3.0.0",
            "fredcy/elm-parseint": "2.0.1",
            "ianmackenzie/elm-float-extra": "1.1.0",
            "ianmackenzie/elm-geometry": "1.2.1",
            "ianmackenzie/elm-interval": "1.0.1",
            "ianmackenzie/elm-triangular-mesh": "1.0.4",
            "justinmimbs/date": "3.2.1",
            "justinmimbs/time-extra": "1.1.0",
            "ryannhg/date-format": "2.3.0"
        }
    },
    "test-dependencies": {
        "direct": {},
        "indirect": {}
    }
}
