<?xml version="1.0" standalone="no"?>
<!DOCTYPE svg PUBLIC "-//W3C//DTD SVG 1.1//EN" "http://www.w3.org/Graphics/SVG/1.1/DTD/svg11.dtd" >
<svg xmlns="http://www.w3.org/2000/svg">
<metadata>Generated by IcoMoon</metadata>
<defs>
<font id="icomoon" horiz-adv-x="1024">
<font-face units-per-em="1024" ascent="960" descent="-64" />
<missing-glyph horiz-adv-x="1024" />
<glyph unicode="&#x20;" horiz-adv-x="512" d="" />
<glyph unicode="&#xcc;" glyph-name="curve-chart" d="M243.2 166.4l-38.4 17.067 221.867 520.533 196.267-251.733 157.867 277.333 38.4-21.333-192-332.8-192 247.467zM281.6 174.933c0-37.703-24.833-68.267-55.467-68.267s-55.467 30.564-55.467 68.267c0 37.703 24.833 68.267 55.467 68.267s55.467-30.564 55.467-68.267zM486.4 665.6c0-37.703-24.833-68.267-55.467-68.267s-55.467 30.564-55.467 68.267c0 37.703 24.833 68.267 55.467 68.267s55.467-30.564 55.467-68.267zM682.667 413.867c0-37.703-24.833-68.267-55.467-68.267s-55.467 30.564-55.467 68.267c0 37.703 24.833 68.267 55.467 68.267s55.467-30.564 55.467-68.267zM853.333 721.067c0-37.703-24.833-68.267-55.467-68.267s-55.467 30.564-55.467 68.267c0 37.703 24.833 68.267 55.467 68.267s55.467-30.564 55.467-68.267z" />
<glyph unicode="&#xc03;" d="M170.667 224h162.54v-117.333h-162.54v117.333z" />
<glyph unicode="&#xc04;" d="M430.729 405.333h162.54v-298.667h-162.54v298.667z" />
<glyph unicode="&#xc05;" d="M690.795 672h162.54v-565.333h-162.54v565.333z" />
<glyph unicode="&#xc06;" d="M170.667 341.333h162.54v-117.333h-162.54v117.333z" />
<glyph unicode="&#xc07;" d="M430.729 522.667h162.54v-117.333h-162.54v117.333z" />
<glyph unicode="&#xc08;" d="M690.795 789.333h162.54v-117.333h-162.54v117.333z" />
<glyph unicode="&#xe900;" glyph-name="waterfall-flux" horiz-adv-x="961" d="M0 448h128v-512h-128v512zM192 640h256v-192h-256v192zM832 960h129.28v-1024h-129.28v1024zM512 960h256v-320h-256v320z" />
<glyph unicode="&#xe901;" glyph-name="waterfall-solde" horiz-adv-x="1172" d="M0 448h225.28v-512h-225.28v512zM353.28 640h128v-192h-128v192zM929.28 960h243.2v-1024h-243.2v1024zM664.32 960h110.72v-320h-110.72v320z" />
<glyph unicode="&#xe902;" glyph-name="waterfall-flux2" horiz-adv-x="962" d="M192 640h256v-192h-256v192zM512 960h256v-320h-256v320zM0 246.4h128v-105.6h-128v105.6zM0 37.76h128v-101.76h-128v101.76zM0 448h128v-97.92h-128v97.92zM832.64 960v-150.4h128v-103.68h-128v-105.6h128v-103.68h-128v-97.92h128v-103.040h-128v-105.6h128v-103.040h-128v-151.040h129.28v1024h-129.28z" />
<glyph unicode="&#xe903;" glyph-name="waterfall-solde2" horiz-adv-x="1172" d="M0 448h225.28v-512h-225.28v512zM929.28 960h243.2v-1024h-243.2v1024zM353.28 640h128v-64h-128v64zM353.28 511.36h128v-63.36h-128v63.36zM664.32 960h110.72v-55.68h-110.72v55.68zM664.32 703.36h110.72v-63.36h-110.72v63.36zM664.32 840.32h110.72v-72.32h-110.72v72.32z" />
</font></defs></svg>