<svg width="24" height="24" viewBox="0 0 24 24" fill="none" xmlns="http://www.w3.org/2000/svg">
<path d="M4 11.2131L11.0303 4L15.0303 9.2459L20 4.13115V19.8689H4V11.2131Z" fill="#F3A0BB"/>
<path d="M4 14.8495L11.0303 10.5574L15.0303 13.6789L20 10.6354V20H4V14.8495Z" fill="#FF335A"/>
</svg>
