<svg width="24" height="24" viewBox="0 0 24 24" fill="none" xmlns="http://www.w3.org/2000/svg">
<rect x="4" y="17.25" width="3.80952" height="2.75" fill="#FF335A"/>
<rect x="10.0952" y="13" width="3.80952" height="7" fill="#FF335A"/>
<rect x="16.1905" y="6.75" width="3.80952" height="13.25" fill="#FF335A"/>
<rect x="4" y="14.5" width="3.80952" height="2.75" fill="#FF335A"/>
<rect x="10.0952" y="10.25" width="3.80952" height="2.75" fill="#FF335A"/>
<rect x="16.1905" y="4" width="3.80952" height="2.75" fill="#FF335A"/>
<path d="M5.26984 18.3674L10.0952 6.93878L14.6667 12.8163L18.7302 5.63266" stroke="#F3A0BB" stroke-linejoin="round"/>
<ellipse cx="5.26984" cy="18.3673" rx="1.26984" ry="1.63265" fill="#F3A0BB"/>
<ellipse cx="10.0952" cy="6.93878" rx="1.26984" ry="1.63265" fill="#F3A0BB"/>
<ellipse cx="14.6667" cy="12.8163" rx="1.26984" ry="1.63265" fill="#F3A0BB"/>
<ellipse cx="18.7302" cy="5.63265" rx="1.26984" ry="1.63265" fill="#F3A0BB"/>
</svg>
