<svg width="7" height="13" viewBox="0 0 7 13" fill="none" xmlns="http://www.w3.org/2000/svg">
<path d="M6.50542 0.489798L2.50349 0.484789L4.00609 1.98739L0.495015 5.49847L1.49675 6.50021L5.00783 2.98913L6.51043 4.49173L6.50542 0.489798ZM2.99434 11.013L6.50542 7.50194L5.50369 6.50021L1.99261 10.0113L0.490006 8.50868L0.495016 12.5106L4.49695 12.5156L2.99434 11.013Z" fill="white"/>
</svg>
