<svg width="15" height="9" viewBox="0 0 15 9" fill="none" xmlns="http://www.w3.org/2000/svg">
<path d="M1.76185 4.50065C1.76185 3.2894 2.74643 2.30482 3.95768 2.30482H6.79102V0.958984H3.95768C2.00268 0.958984 0.416016 2.54565 0.416016 4.50065C0.416016 6.45565 2.00268 8.04232 3.95768 8.04232H6.79102V6.69648H3.95768C2.74643 6.69648 1.76185 5.7119 1.76185 4.50065ZM4.66602 5.20898H10.3327V3.79232H4.66602V5.20898ZM11.041 0.958984H8.20768V2.30482H11.041C12.2523 2.30482 13.2368 3.2894 13.2368 4.50065C13.2368 5.7119 12.2523 6.69648 11.041 6.69648H8.20768V8.04232H11.041C12.996 8.04232 14.5827 6.45565 14.5827 4.50065C14.5827 2.54565 12.996 0.958984 11.041 0.958984Z" fill="white"/>
</svg>
